{
   "stage":{
     "stage1":{"rows":[5,10]}
   },
   "config":{
     "stage1":[
             {"key":"id","func":"self.faker.pystr(12,12)"},
             {"key":"name","func":"self.faker.cname()"},
             {"key":"grade","func":"self.faker.random_int(1,8)"},
             {"key":"score","func":"self.faker.random_float(40.01,99.99)"}
     ]
   }
}
