{
  "药1": {
    "act": "(不|不要|不应|不许)?(吃|喝|服用|服|饮)",
    "name": "(药|药品|药物|药材|中药材|草药|阿司匹林|止渴糖浆|他汀|三九感冒冲剂|桂林西瓜霜|整肠生)[片|胶囊|冲剂]?"
  },
  "药2": {
    "act": "(不|不要|不应|不许)?(吃|喝|服用|服|饮)",
    "name": "(21金维他|钙片|钙尔奇Vc片|B族|海王金尊|鱼肝油)[片|胶囊|冲剂]?"
  },
  "药3": {
    "act": "(不|不要|不应|不许)?(吃|喝|服用|服|饮)",
    "name": "(肾上腺素|利多卡因|苯妥英钠|安定|乙琥胺|米帕明|维拉帕米|呋赛米|甘露醇|青霉素|林可霉素)[片|胶囊|冲剂]?"
  },
  "药4": {
    "act": "(不|不要|不应|不许)?(吃|喝|服用|服|饮)",
    "name": "(氯霉素|雷米封|氯奎|强氯奎|伯安奎|乙胺嘧啶|甲硝锉|皮罗卡品)[片|胶囊|冲剂]?"
  },
  "药5": {
    "act": "(不|不要|不应|不许)?(吃|喝|服用|服|饮)",
    "name": "(感冒清|新康泰克|维C银翘片|抗病毒|板蓝根|氨加黄敏|阿莫西林|琥乙红霉素|利君沙|头孢氨苄|黄连素|健胃消食片|多酶片|氟哌酸)[片|胶囊|冲剂]?"
  },
  "药6": {
    "act": "(不|不要|不应|不许)?(吃|喝|服用|服|饮)",
    "name": "(扑尔敏|酮替芬|人丹|藿香正气水|复方颠茄片|普鲁本辛|感冒清|新康泰克|维C银翘片|抗病毒|板蓝根|氨加黄敏|阿莫西林|琥乙红霉素|利君沙|头孢氨苄|黄连素|健胃消食片|多酶片|氟哌酸)[片|胶囊|冲剂]?"
  },
  "药7": {
    "act": "(不|不要|不应|不许)?(吃|喝|服用|服|饮)",
    "name": "(格列吡嗪控释片|门冬氨酸氨氯地平片|卡维地洛片|厄贝沙坦氢氯噻嗪片|来氟米特|利巴韦林|奥美拉挫|硫糖铝|蒲地蓝消炎片|精致银翘解毒片)[片|胶囊|冲剂]?"
  },
  "药8": {
    "act": "(不|不要|不应|不许)?(吃|喝|服用|服|饮)",
    "name": "(米西沙星|盐酸莫西沙星|拜复乐)[片|胶囊|冲剂]?"
  },
  "药9": {
    "act": "(不|不要|不应|不许)?(吃|喝|服用|服|饮)",
    "name": "(异烟肼片|香丹注射液|上清丸|盐酸法舒地尔注射液|六味地黄丸|复方氨酚苯海拉明片|醋酸泼尼松片|头孢氨苄胶囊|螺内酯|香砂理中丸|土霉素片|心安胶囊|硝苯地平片)"
  },
  "药10": {
    "act": "(不|不要|不应|不许)?(吃|喝|服用|服|饮)",
    "name": "(艾附暖宫丸|酚氨咖敏颗粒|丙酸氯倍他索乳膏|胆康片|曲克芦丁片|富马酸氯马斯汀片|曲克芦丁片|碳酸氢钠注射液|头孢羟氨苄颗粒|盐酸米诺环素片|复方地芬诺酯片|小儿复方鸡内金散)"
  },
  "药11": {
    "act": "(不|不要|不应|不许)?(吃|喝|服用|服|饮)",
    "name": "(尼麦角林|曲克芦丁片|救必应胃痛片|百蕊含片|脑心清片|伤科七味片|甲硝唑片|谷胱甘肽|更昔洛韦|知柏地黄丸|吡哌酸片|吲哚美辛肠溶片|川贝枇杷糖浆|桂林西瓜霜含片|蛇胆川贝液)"
  },
  "药12": {
    "act": "(不|不要|不应|不许)?(吃|喝|服用|服|饮)",
    "name": "(头孢呋辛酯|四环素片|解郁安神颗粒|石斛夜光丸|橘红丸|板蓝根颗粒|妇科止带片|甲氧苄啶片|红药片|氨甲环酸|脉安颗粒|舒胸片|牛黄清心丸|对乙酰氨基酚片|藿香正气丸|风热感冒颗粒)"
  },
  "药13": {
    "act": "(不|不要|不应|不许)?(吃|喝|服用|服|饮)",
    "name": "(谷维素片|头孢氨苄片|葛根素注射液|牡蛎碳酸钙咀嚼片|复方阿司匹林片|磷酸苯丙哌林胶囊|安宫牛黄丸|苦参素注射液|云芝肝泰颗粒|小柴胡颗粒|碳酸氢钠片|磺胺嘧啶片|安乃近片|羚竺散|男宝胶囊)"
  },
  "药14": {
    "act": "(不|不要|不应|不许)?(吃|喝|服用|服|饮)",
    "name": "(保济油|双氯芬酸钾|兰索拉唑肠溶片|铝碳酸镁咀嚼片|妇科白凤口服液|熊去氧胆酸片|清凉防暑颗粒|八珍益母片|薄荷脑|重酒石酸卡巴拉汀胶囊|柏子养心丸|小金丸|甲苯磺丁脲片|卡马西平片)"
  },
  "药15": {
    "act": "(不|不要|不应|不许)?(吃|喝|服用|服|饮)",
    "name": "(肥儿散|化毒散|小儿化滞散|人工牛黄片|夏桑菊片|西咪替丁胶囊|乳癖康胶囊|八厘散|沉香化气丸|使君子丸|十全大补颗粒|伤湿止痛膏|银翘解毒丸|夏桑菊颗粒|心可宁胶囊|盐酸洛美沙星胶囊|坤宝丸)"
  }
}
